{
  "type": "tab",
  "id": "4e1376c9.b1ec88",
  "label": "Event to Notification Flow",
  "flow": [
    {
      "id": "60bab4d9.9f454c",
      "type": "dynamodb-stream",
      "z": "4e1376c9.b1ec88",
      "aws": "e316e627.1ce918",
      "name": "Events Stream",
      "arn": "",
      "x": 224,
      "y": 536,
      "wires": [
        []
      ]
    },
    {
      "id": "5da70383.a258fc",
      "type": "function",
      "z": "4e1376c9.b1ec88",
      "name": "Filter to inserts",
      "func": "if (msg.topic == \"insert record\"){\n    return msg;    \n}else{\n    return null;\n}\n",
      "outputs": "1",
      "noerr": 0,
      "x": 476,
      "y": 378,
      "wires": [
        [
          "1178f2ba.ee870d",
          "c7af46d3.3850b8"
        ]
      ]
    },
    {
      "id": "87f55694.780aa8",
      "type": "subflow:c8c5e007.373a2",
      "z": "4e1376c9.b1ec88",
      "name": "",
      "x": 1294,
      "y": 340,
      "wires": [
        [
          "fd9ab10c.02655",
          "c17498b5.3e8b68",
          "8187a496.7e7858"
        ]
      ]
    },
    {
      "id": "8309e281.7cf62",
      "type": "inject",
      "z": "4e1376c9.b1ec88",
      "name": "Insert reward event record",
      "topic": "insert record",
      "payload": "{\"event_type\":\"reward\", \"user_id\": 1}",
      "payloadType": "string",
      "repeat": "",
      "crontab": "",
      "once": false,
      "x": 188.5,
      "y": 209,
      "wires": [
        [
          "f1a92390.0e56e"
        ]
      ]
    },
    {
      "id": "3aec6e3.fc51392",
      "type": "subflow:98bfa143.67406",
      "z": "4e1376c9.b1ec88",
      "name": "",
      "x": 1289,
      "y": 416,
      "wires": [
        [
          "fd9ab10c.02655"
        ]
      ]
    },
    {
      "id": "c7af46d3.3850b8",
      "type": "function",
      "z": "4e1376c9.b1ec88",
      "name": "Form Scan Args",
      "func": "var userScanArgs = {};\n\nuserScanArgs.key = \"first_name\";\nuserScanArgs.reservedKey = \"first_name\";\nif (msg.payload.user_id === 1){\n    userScanArgs.value = \"Zoe\";    \n    context.global.url = \"http://ec2-52-48-144-159.eu-west-1.compute.amazonaws.com/consumer-notification\";\n}else{\n    userScanArgs.value = \"Luiza\";  \n    context.global.url = \"http://ec2-52-48-144-159.eu-west-1.compute.amazonaws.com/retailer-notification\";\n}\n\nuserScanArgs.operator = \"=\";\n\nvar notificationTemplateScanArgs = {};\nnotificationTemplateScanArgs.key = \"nme\";\nnotificationTemplateScanArgs.reservedKey = \"name\";\nnotificationTemplateScanArgs.value = msg.payload.event_type;\nnotificationTemplateScanArgs.operator = \"=\";\n\nvar msg1 = {\n    payload: userScanArgs,\n    url: context.global.url\n}\n\nvar msg2 = {\n    payload: notificationTemplateScanArgs,\n    url: context.global.url\n    \n}\n\nreturn [msg1, msg2];",
      "outputs": "2",
      "noerr": 0,
      "x": 798.2500152587891,
      "y": 356.2500057220459,
      "wires": [
        [
          "87f55694.780aa8",
          "32825288.cd7dae"
        ],
        [
          "3aec6e3.fc51392",
          "32825288.cd7dae"
        ]
      ]
    },
    {
      "id": "3d1740f6.c2e8c",
      "type": "inject",
      "z": "4e1376c9.b1ec88",
      "name": "Insert enter_store event",
      "topic": "insert record",
      "payload": "{\"event_type\":\"enter_store\", \"user_id\": 1}",
      "payloadType": "string",
      "repeat": "",
      "crontab": "",
      "once": false,
      "x": 194,
      "y": 78,
      "wires": [
        [
          "f1a92390.0e56e"
        ]
      ]
    },
    {
      "id": "fd9ab10c.02655",
      "type": "function",
      "z": "4e1376c9.b1ec88",
      "name": "Wait for all tasks to finish",
      "func": "context.data = context.data || {};\n\nswitch (msg.topic) {\n    case \"user\":\n        context.data.user = msg.payload.Items;\n        context.data.url = context.global.url\n        msg = null;\n        break;\n    case \"notification_template\":\n        context.data.notification_template = msg.payload;\n        msg = null;\n        break;\n        \n    default:\n        msg = null;\n    \tbreak;\n\n}\nconsole.log(context);\nif(context.data.hasOwnProperty(\"user\") && context.data.hasOwnProperty(\"notification_template\")) {\n    console.log(\"Inside if \")\n    var newMsg = {payload: context.data};\n    context.data=null;\n\treturn newMsg;\n}",
      "outputs": 1,
      "noerr": 0,
      "x": 1575.5,
      "y": 377,
      "wires": [
        [
          "166a07b4.e995f8",
          "d602442c.29fdb8"
        ]
      ]
    },
    {
      "id": "2831925d.d7ce6e",
      "type": "debug",
      "z": "4e1376c9.b1ec88",
      "name": "Notifications Creation",
      "active": false,
      "console": "false",
      "complete": "payload",
      "x": 2434,
      "y": 570,
      "wires": []
    },
    {
      "id": "166a07b4.e995f8",
      "type": "function",
      "z": "4e1376c9.b1ec88",
      "name": "Create Notification",
      "func": "var mustache = context.global.mustache;\n\n\nvar users = msg.payload.user;\nvar notificationJsons = [];\nfor (i = 0; i < users.length; i++) {\n    var user = users[i]\n    var notification_template = msg.payload.notification_template;\n    var notificationJson = {};\n    notificationJson.user_id = user.user_id;\n    notificationJson.device_token = user.device_token;\n    notificationJson.read = false;\n    notificationJson.notification_template_id = notification_template.notification_template_id;\n    notificationJson.content = notification_template.content\n// notificationJson.content = mustache.render(notification_template.content, user);\n    notificationJson.notification_id = Math.floor((Math.random() * 10000000) + 1);\n    notificationJson.url = msg.payload.url\n    notificationJson.event_type = notification_template.name\n    notificationJsons.push(notificationJson)\n}\nmsg.payload = notificationJsons;\nreturn msg;",
      "outputs": 1,
      "noerr": 0,
      "x": 1519,
      "y": 578,
      "wires": [
        [
          "2768c8.ffd89738"
        ]
      ]
    },
    {
      "id": "f1a92390.0e56e",
      "type": "json",
      "z": "4e1376c9.b1ec88",
      "name": "",
      "x": 444.7142639160156,
      "y": 151.71426391601562,
      "wires": [
        [
          "5da70383.a258fc"
        ]
      ]
    },
    {
      "id": "ee3e648a.11c198",
      "type": "inject",
      "z": "4e1376c9.b1ec88",
      "name": "Insert shopper_needs_assistance event",
      "topic": "insert record",
      "payload": "{\"event_type\":\"shopper_needs_assistance\", \"user_id\": 2}",
      "payloadType": "string",
      "repeat": "",
      "crontab": "",
      "once": false,
      "x": 212.5,
      "y": 328,
      "wires": [
        [
          "f1a92390.0e56e"
        ]
      ]
    },
    {
      "id": "1178f2ba.ee870d",
      "type": "debug",
      "z": "4e1376c9.b1ec88",
      "name": "",
      "active": false,
      "console": "false",
      "complete": "false",
      "x": 728,
      "y": 534,
      "wires": []
    },
    {
      "id": "430d77cb.bcf288",
      "type": "inject",
      "z": "4e1376c9.b1ec88",
      "name": "near_wishlist_item",
      "topic": "insert record",
      "payload": "{\"event_type\":\"near_wishlist_item\", \"user_id\": 1}",
      "payloadType": "string",
      "repeat": "",
      "crontab": "",
      "once": false,
      "x": 209,
      "y": 160,
      "wires": [
        [
          "f1a92390.0e56e"
        ]
      ]
    },
    {
      "id": "2768c8.ffd89738",
      "type": "splitter",
      "z": "4e1376c9.b1ec88",
      "name": "split notifications array",
      "property": "payload",
      "x": 1754,
      "y": 557,
      "wires": [
        [
          "b78594d5.487a68"
        ]
      ]
    },
    {
      "id": "d602442c.29fdb8",
      "type": "debug",
      "z": "4e1376c9.b1ec88",
      "name": "",
      "active": false,
      "console": "false",
      "complete": "payload",
      "x": 1864,
      "y": 369,
      "wires": []
    },
    {
      "id": "32825288.cd7dae",
      "type": "debug",
      "z": "4e1376c9.b1ec88",
      "name": "",
      "active": true,
      "console": "false",
      "complete": "url",
      "x": 1282,
      "y": 268,
      "wires": []
    },
    {
      "id": "b78594d5.487a68",
      "type": "delay",
      "z": "4e1376c9.b1ec88",
      "name": "",
      "pauseType": "delay",
      "timeout": "1",
      "timeoutUnits": "seconds",
      "rate": "1",
      "rateUnits": "second",
      "randomFirst": "1",
      "randomLast": "5",
      "randomUnits": "seconds",
      "drop": false,
      "x": 1996,
      "y": 574,
      "wires": [
        [
          "51512336.aeaedc"
        ]
      ]
    },
    {
      "id": "c17498b5.3e8b68",
      "type": "debug",
      "z": "4e1376c9.b1ec88",
      "name": "",
      "active": false,
      "console": "false",
      "complete": "false",
      "x": 1651.111111111111,
      "y": 251.11111111111111,
      "wires": []
    },
    {
      "id": "8187a496.7e7858",
      "type": "debug",
      "z": "4e1376c9.b1ec88",
      "name": "",
      "active": false,
      "console": "false",
      "complete": "url",
      "x": 1550,
      "y": 194.44444444444443,
      "wires": []
    },
    {
      "id": "27b6db.ffd84924",
      "type": "inject",
      "z": "4e1376c9.b1ec88",
      "name": "Insert shopper_enter_store event",
      "topic": "insert record",
      "payload": "{\"event_type\":\"shopper_enter_store\", \"user_id\": 2}",
      "payloadType": "string",
      "repeat": "",
      "crontab": "",
      "once": false,
      "x": 167.5454559326172,
      "y": 116.3636474609375,
      "wires": [
        [
          "f1a92390.0e56e"
        ]
      ]
    },
    {
      "id": "ef40a16b.10bf6",
      "type": "inject",
      "z": "4e1376c9.b1ec88",
      "name": "near_wishlist_item_shoes",
      "topic": "insert record",
      "payload": "{\"event_type\":\"near_wishlist_item_shoes\", \"user_id\": 1}",
      "payloadType": "string",
      "repeat": "",
      "crontab": "",
      "once": false,
      "x": 193,
      "y": 256,
      "wires": [
        [
          "f1a92390.0e56e"
        ]
      ]
    },
    {
      "id": "86bfb731.794048",
      "type": "http request",
      "z": "4e1376c9.b1ec88",
      "name": "Post to notification endpoint",
      "method": "POST",
      "ret": "txt",
      "url": "",
      "x": 2378,
      "y": 459,
      "wires": [
        [
          "c1771434.3e88e8"
        ]
      ]
    },
    {
      "id": "51512336.aeaedc",
      "type": "function",
      "z": "4e1376c9.b1ec88",
      "name": "Form Notification JSON",
      "func": "var previousMsgs = context.prev || [];\nif (previousMsgs.indexOf(msg.payload.notification_id) === -1){\n    previousMsgs.push(msg.payload.notification_id);\n    var count = 1; // TODO get count\n    var notificationJson = {\n        badge: count,\n        alert: msg.payload.content,\n        device_token: msg.payload.device_token,\n        payload: {\n            event_type: msg.payload.event_type\n        }\n    };\n\n    msg.url = msg.payload.url;\n    msg.payload = notificationJson;\n    msg.headers = {\n        \"Content-Type\": \"application/json\"\n    };\n    \n    return msg;\n}\n",
      "outputs": 1,
      "noerr": 0,
      "x": 2116,
      "y": 459,
      "wires": [
        [
          "86bfb731.794048",
          "2831925d.d7ce6e"
        ]
      ]
    },
    {
      "id": "c1771434.3e88e8",
      "type": "debug",
      "z": "4e1376c9.b1ec88",
      "name": "",
      "active": true,
      "console": "false",
      "complete": "false",
      "x": 2720,
      "y": 537,
      "wires": []
    }
  ]
}